Módulo de Gráficos y Visualización de datos
…
---

class: split-40
count: false
.column[.content[

```r
*base
```
]]
.column[.content[

```
  # A tibble: 19,355 x 177
     CODUSU  ANO4 TRIMESTRE NRO_HOGAR COMPONENTE   H15 REGION MAS_500 AGLOMERADO
     <fct>  <int>     <int>     <int>      <int> <int>  <int> <fct>        <int>
   1 TQRMN~  2018         1         1          1     1     43 S                4
   2 TQRMN~  2018         1         1          1     1     43 S                4
   3 TQRMN~  2018         1         1          2     1     43 S                4
   4 TQRMN~  2018         1         1          1     1     43 S                4
   5 TQRMN~  2018         1         1          2     1     43 S                4
   6 TQRMN~  2018         1         1          1     1     43 S                4
   7 TQRMN~  2018         1         1          4     1     43 S                4
   8 TQSMN~  2018         1         1          1     1     43 S                2
   9 TQRMN~  2018         1         1          1     1     43 S                2
  10 TQRMN~  2018         1         1          1     1     43 S                2
  # ... with 19,345 more rows, and 168 more variables: PONDERA <int>, CH03 <int>,
  #   CH04 <fct>, CH05 <fct>, CH06 <int>, CH07 <int>, CH08 <int>, CH09 <int>,
  #   CH10 <int>, CH11 <int>, CH12 <int>, CH13 <int>, CH14 <chr>, CH15 <int>,
  #   CH15_COD <int>, CH16 <int>, CH16_COD <int>, NIVEL_ED <fct>, ESTADO <int>,
  #   CAT_OCUP <int>, CAT_INAC <int>, IMPUTA <int>, PP02C1 <int>, PP02C2 <int>,
  #   PP02C3 <int>, PP02C4 <int>, PP02C5 <int>, PP02C6 <int>, PP02C7 <int>,
  #   PP02C8 <int>, PP02E <int>, PP02H <int>, PP02I <int>, PP03C <int>,
  #   PP03D <int>, PP3E_TOT <int>, PP3F_TOT <int>, PP03G <int>, PP03H <int>,
  #   PP03I <int>, PP03J <int>, INTENSI <int>, PP04A <int>, PP04B_COD <chr>,
…
```r
base %>%  
* select(NIVEL_ED, CH04, PONDERA)
```
]]
.column[.content[

```
  # A tibble: 19,355 x 3
     NIVEL_ED              CH04  PONDERA
     <fct>                 <fct>   <int>
   1 Primaria incompleta   Varón     886
   2 Sup. completo         Mujer     509
   3 Sup. incompleto       Mujer     509
   4 Secundaria incompleta Varón     674
   5 Sup. incompleto       Mujer     674
   6 Primaria incompleta   Varón     368
   7 Secundaria completa   Varón     368
   8 Secundaria completa   Mujer     573
   9 Sup. completo         Varón     546
  10 Secundaria completa   Varón    1060
  # ... with 19,345 more rows
```
…
```r
base %>%  
  select(NIVEL_ED, CH04, PONDERA) %>%  
* group_by(NIVEL_ED)
```
]]
.column[.content[

```
  # A tibble: 19,355 x 3
  # Groups:   NIVEL_ED [7]
     NIVEL_ED              CH04  PONDERA
     <fct>                 <fct>   <int>
   1 Primaria incompleta   Varón     886
   2 Sup. completo         Mujer     509
   3 Sup. incompleto       Mujer     509
   4 Secundaria incompleta Varón     674
   5 Sup. incompleto       Mujer     674
   6 Primaria incompleta   Varón     368
   7 Secundaria completa   Varón     368
   8 Secundaria completa   Mujer     573
   9 Sup. completo         Varón     546
  10 Secundaria completa   Varón    1060
  # ... with 19,345 more rows
```
…
class: split-40
count: false
.column[.content[

```r
*base
```
]]
.column[.content[

```
  # A tibble: 19,355 x 177
     CODUSU  ANO4 TRIMESTRE NRO_HOGAR COMPONENTE   H15 REGION MAS_500 AGLOMERADO
     <fct>  <int>     <int>     <int>      <int> <int>  <int> <fct>        <int>
   1 TQRMN~  2018         1         1          1     1     43 S                4
   2 TQRMN~  2018         1         1          1     1     43 S                4
   3 TQRMN~  2018         1         1          2     1     43 S                4
   4 TQRMN~  2018         1         1          1     1     43 S                4
   5 TQRMN~  2018         1         1          2     1     43 S                4
   6 TQRMN~  2018         1         1          1     1     43 S                4
   7 TQRMN~  2018         1         1          4     1     43 S                4
   8 TQSMN~  2018         1         1          1     1     43 S                2
   9 TQRMN~  2018         1         1          1     1     43 S                2
  10 TQRMN~  2018         1         1          1     1     43 S                2
  # ... with 19,345 more rows, and 168 more variables: PONDERA <int>, CH03 <int>,
  #   CH04 <fct>, CH05 <fct>, CH06 <int>, CH07 <int>, CH08 <int>, CH09 <int>,
  #   CH10 <int>, CH11 <int>, CH12 <int>, CH13 <int>, CH14 <chr>, CH15 <int>,
  #   CH15_COD <int>, CH16 <int>, CH16_COD <int>, NIVEL_ED <fct>, ESTADO <int>,
  #   CAT_OCUP <int>, CAT_INAC <int>, IMPUTA <int>, PP02C1 <int>, PP02C2 <int>,
  #   PP02C3 <int>, PP02C4 <int>, PP02C5 <int>, PP02C6 <int>, PP02C7 <int>,
  #   PP02C8 <int>, PP02E <int>, PP02H <int>, PP02I <int>, PP03C <int>,
  #   PP03D <int>, PP3E_TOT <int>, PP3F_TOT <int>, PP03G <int>, PP03H <int>,
  #   PP03I <int>, PP03J <int>, INTENSI <int>, PP04A <int>, PP04B_COD <chr>,
…
```r
base %>%  
* select(P21,EDAD = CH06,SEXO = CH04,NIVEL_ED)
```
]]
.column[.content[

```
  # A tibble: 19,355 x 4
       P21  EDAD SEXO  NIVEL_ED             
     <int> <int> <fct> <fct>                
   1 10000    62 Varón Primaria incompleta  
   2 17000    28 Mujer Sup. completo        
   3 18000    27 Mujer Sup. incompleto      
   4  5000    46 Varón Secundaria incompleta
   5 10000    47 Mujer Sup. incompleto      
   6 15000    53 Varón Primaria incompleta  
   7 15000    22 Varón Secundaria completa  
   8  9000    55 Mujer Secundaria completa  
   9 20000    64 Varón Sup. completo        
  10  6000    27 Varón Secundaria completa  
  # ... with 19,345 more rows
```
…
