Introducción a Tidyverse
…
```r
base %>%  
  select(ESTADO, CAT_OCUP, CH04, P21) %>%  
  filter(ESTADO == 1 & P21 > 0) %>%  
  mutate(CAT_OCUP = case_when(CAT_OCUP == 1 ~ "Patrón",  
                              CAT_OCUP == 2 ~ "Cuenta propia",  
                              CAT_OCUP == 3 ~ "Asalariado")) %>%  
* group_by(CAT_OCUP)
```
]]
.column[.content[

```
  # A tibble: 23,725 x 4
  # Groups:   CAT_OCUP [3]
     ESTADO CAT_OCUP    CH04   P21
      <int> <chr>      <int> <dbl>
   1      1 Asalariado     1  6000
   2      1 Asalariado     2  5000
   3      1 Asalariado     1  5000
   4      1 Asalariado     1  6500
   5      1 Asalariado     1  9500
   6      1 Asalariado     2  6000
   7      1 Asalariado     1  8000
   8      1 Asalariado     2  3800
   9      1 Asalariado     1  1000
  10      1 Asalariado     2 10000
  # ... with 23,715 more rows
```
…
```
  # A tibble: 3 x 4
    CAT_OCUP      ingreso_medio ingreso_desvio ingreso_cv
    <chr>                 <dbl>          <dbl>      <dbl>
  1 Asalariado            7667.          5375.       70.1
  2 Cuenta propia         5413.          5057.       93.4
  3 Patrón               10096.          8852.       87.7
```
]]

---

class: split-40
count: false
.column[.content[

```r
*base
```
]]
.column[.content[

```
     ANO4 TRIMESTRE AGLOMERADO CH04 CH06 ESTADO CAT_OCUP NIVEL_ED  P21 TOT_P12
  1  2015         2          2    2   41      3        0        4    0       0
  2  2015         2          2    1   46      1        3        3 6000       0
  3  2015         2          2    2   26      1        3        4 5000       0
  4  2015         2          2    1   47      1        3        4 5000       0
  5  2015         2          2    1    1      4        0        7    0       0
  6  2015         2          2    2   58      3        0        2    0       0
  7  2015         2          2    1   52      1        3        2 6500    4500
  8  2015         2          2    2   16      3        0        3    0       0
  9  2015         2          2    1   15      3        0        3    0       0
  10 2015         2          2    1   45      1        3        2 9500       0
   [ reached 'max' / getOption("max.print") -- omitted 60018 rows ]
```
…
```
  # A tibble: 23,725 x 4
  # Groups:   CAT_OCUP, CH04 [6]
     ESTADO CAT_OCUP   CH04    P21
      <int> <chr>      <chr> <dbl>
   1      1 Asalariado Varón  6000
   2      1 Asalariado Mujer  5000
   3      1 Asalariado Varón  5000
   4      1 Asalariado Varón  6500
   5      1 Asalariado Varón  9500
   6      1 Asalariado Mujer  6000
   7      1 Asalariado Varón  8000
   8      1 Asalariado Mujer  3800
   9      1 Asalariado Varón  1000
  10      1 Asalariado Mujer 10000
  # ... with 23,715 more rows
```
…
```
  # A tibble: 23,725 x 4
  # Groups:   CAT_OCUP, CH04 [6]
     ESTADO CAT_OCUP   CH04    P21
      <int> <chr>      <chr> <dbl>
   1      1 Asalariado Varón  6000
   2      1 Asalariado Mujer  5000
   3      1 Asalariado Varón  5000
   4      1 Asalariado Varón  6500
   5      1 Asalariado Varón  9500
   6      1 Asalariado Mujer  6000
   7      1 Asalariado Varón  8000
   8      1 Asalariado Mujer  3800
   9      1 Asalariado Varón  1000
  10      1 Asalariado Mujer 10000
  # ... with 23,715 more rows
```
…
```
  # A tibble: 23,725 x 4
  # Groups:   CAT_OCUP, CH04 [6]
     ESTADO CAT_OCUP   CH04    P21
      <int> <chr>      <chr> <dbl>
   1      1 Asalariado Varón  6000
   2      1 Asalariado Mujer  5000
   3      1 Asalariado Varón  5000
   4      1 Asalariado Varón  6500
   5      1 Asalariado Varón  9500
   6      1 Asalariado Mujer  6000
   7      1 Asalariado Varón  8000
   8      1 Asalariado Mujer  3800
   9      1 Asalariado Varón  1000
  10      1 Asalariado Mujer 10000
  # ... with 23,715 more rows
```
…
